<?xml version="1.0" encoding="UTF-8"?>
<!DOCTYPE svg PUBLIC "-//W3C//DTD SVG 1.1//EN" "http://www.w3.org/Graphics/SVG/1.1/DTD/svg11.dtd">
<!-- Creator: CorelDRAW X7 -->
<svg xmlns="http://www.w3.org/2000/svg" xml:space="preserve" width="30.7843mm" height="24.9922mm" version="1.1" style="shape-rendering:geometricPrecision; text-rendering:geometricPrecision; image-rendering:optimizeQuality; fill-rule:evenodd; clip-rule:evenodd"
viewBox="0 0 1408 1143"
 xmlns:xlink="http://www.w3.org/1999/xlink">
 <defs>
  <style type="text/css">
   <![CDATA[
    .fil0 {fill:#FEFEFE}
   ]]>
  </style>
 </defs>
 <g id="Capa_x0020_1">
  <metadata id="CorelCorpID_0Corel-Layer"/>
  <path class="fil0" d="M1303 983l-1 11c-12,81 -67,149 -149,149l-925 -5c-81,0 -141,-67 -148,-148l-4 -46 -46 -366 0 0 -28 -155c-11,-61 34,-114 92,-134l0 39c0,27 22,49 49,49l1122 0c27,0 49,-22 49,-49l0 -39c58,20 105,74 92,134l-103 560zm-748 -429l0 3 0 2 0 40c0,32 26,57 57,57l184 0c31,0 57,-25 57,-57l0 -40 0 -2 0 -3 0 0c2,-15 14,-26 29,-26l25 0c14,0 26,11 28,26l1 0 0 3 0 2 0 111c0,39 -33,72 -72,72l-320 0c-39,0 -72,-33 -72,-72l0 -111 0 -2 0 -3 1 0c2,-15 14,-26 28,-26l25 0c15,0 27,11 29,26l0 0z"/>
  <rect class="fil0" x="364" width="670.735" height="92.4606" rx="44" ry="46"/>
  <rect class="fil0" x="205" y="162" width="1001" height="127" rx="34" ry="34"/>
 </g>
</svg>
